-------------------------------------------------------------------------------
Test set: com.fitchconnect.bddrunner.TestRunner
-------------------------------------------------------------------------------
Tests run: 0, Failures: 0, Errors: 0, Skipped: 0, Time elapsed: 62.065 s - in com.fitchconnect.bddrunner.TestRunner
