I:\eclipse-workspace\com.fitchconnect\src\test\java\com\fitchconnect\bddrunner\TestRunner.java
I:\eclipse-workspace\com.fitchconnect\src\test\java\com\fitchconnect\steps\FitchConnectValidLogin.java
I:\eclipse-workspace\com.fitchconnect\src\test\java\com\fitchconnect\testbase\TestBase.java
I:\eclipse-workspace\com.fitchconnect\src\test\java\com\fitchconnect\testng\LoginTests.java
I:\eclipse-workspace\com.fitchconnect\src\test\java\com\fitchconnect\steps\ScriptBase.java
I:\eclipse-workspace\com.fitchconnect\src\test\java\com\fitchconnect\testng\ScriptBaseTestNG.java
